{
    "name": "root",
    "gauges": {
        "RunnerV1_7_Runner.Policy.Entropy.mean": {
            "value": 1.3875412940979004,
            "min": 0.9759979844093323,
            "max": 2.07940673828125,
            "count": 9188
        },
        "RunnerV1_7_Runner.Environment.EpisodeLength.mean": {
            "value": 37.5,
            "min": 0.0,
            "max": 1134.0,
            "count": 8208
        },
        "RunnerV1_7_Runner.Policy.ExtrinsicValueEstimate.mean": {
            "value": 0.8669524192810059,
            "min": -1.3876265287399292,
            "max": 4.827408790588379,
            "count": 9188
        },
        "RunnerV1_7_Runner.Environment.CumulativeReward.mean": {
            "value": 38.800004959106445,
            "min": -75.10000228881836,
            "max": 324.5000329017639,
            "count": 8073
        },
        "RunnerV1_7_Runner.Policy.ExtrinsicReward.mean": {
            "value": 38.800004959106445,
            "min": -75.10000228881836,
            "max": 324.5000329017639,
            "count": 8073
        },
        "RunnerV1_7_Runner.IsTraining.mean": {
            "value": 1.0,
            "min": 1.0,
            "max": 1.0,
            "count": 9188
        },
        "RunnerV1_7_Runner.Losses.ValueLoss.mean": {
            "value": 25.902597427368164,
            "min": 5.802131652832031,
            "max": 25.902597427368164,
            "count": 19
        },
        "RunnerV1_7_Runner.Losses.PolicyLoss.mean": {
            "value": 0.0701451525092125,
            "min": 0.06800273805856705,
            "max": 0.07555653154850006,
            "count": 19
        },
        "RunnerV1_7_Runner.Policy.LearningRate.mean": {
            "value": 4.916893885820173e-06,
            "min": 4.916893885820173e-06,
            "max": 9.499829320702702e-05,
            "count": 19
        }
    },
    "metadata": {
        "timer_format_version": "0.1.0",
        "start_time_seconds": "1623659554",
        "python_version": "3.8.5 (default, May 27 2021, 13:30:53) \n[GCC 9.3.0]",
        "command_line_arguments": "/home/leon/Dokumente/Projekte/wiba/mlAgents/.venv/bin/mlagents-learn configs/RunnerV1.yaml --run-id=RunnerV1_7 --force",
        "mlagents_version": "0.16.1",
        "mlagents_envs_version": "0.16.1",
        "communication_protocol_version": "1.0.0",
        "tensorflow_version": "2.5.0",
        "end_time_seconds": "1623670903"
    },
    "total": 11349.416218974016,
    "count": 1,
    "self": 0.017431180021958426,
    "children": {
        "run_training.setup": {
            "total": 0.007625622005434707,
            "count": 1,
            "self": 0.007625622005434707
        },
        "TrainerController.start_learning": {
            "total": 11349.391162171989,
            "count": 1,
            "self": 492.2878581652767,
            "children": {
                "TrainerController._reset_env": {
                    "total": 6.427608836005675,
                    "count": 1,
                    "self": 6.427608836005675
                },
                "TrainerController.advance": {
                    "total": 10845.427303678589,
                    "count": 1013371,
                    "self": 20.309453196503455,
                    "children": {
                        "env_step": {
                            "total": 10825.117850482085,
                            "count": 1013371,
                            "self": 9197.093383836618,
                            "children": {
                                "SubprocessEnvManager._take_step": {
                                    "total": 1604.9133388235932,
                                    "count": 1013371,
                                    "self": 57.88088993387646,
                                    "children": {
                                        "NNPolicy.evaluate": {
                                            "total": 1547.0324488897168,
                                            "count": 1000034,
                                            "self": 1547.0324488897168
                                        }
                                    }
                                },
                                "workers": {
                                    "total": 23.111127821874106,
                                    "count": 1013371,
                                    "self": 0.0,
                                    "children": {
                                        "worker_root": {
                                            "total": 11290.803203636286,
                                            "count": 1013371,
                                            "is_parallel": true,
                                            "self": 3950.7060025057,
                                            "children": {
                                                "run_training.setup": {
                                                    "total": 0.0,
                                                    "count": 0,
                                                    "is_parallel": true,
                                                    "self": 0.0,
                                                    "children": {
                                                        "steps_from_proto": {
                                                            "total": 0.0009409109770786017,
                                                            "count": 1,
                                                            "is_parallel": true,
                                                            "self": 0.0004529249854385853,
                                                            "children": {
                                                                "_process_vector_observation": {
                                                                    "total": 0.00048798599164001644,
                                                                    "count": 6,
                                                                    "is_parallel": true,
                                                                    "self": 0.00048798599164001644
                                                                }
                                                            }
                                                        },
                                                        "UnityEnvironment.step": {
                                                            "total": 0.026932587003102526,
                                                            "count": 1,
                                                            "is_parallel": true,
                                                            "self": 0.0001396839797962457,
                                                            "children": {
                                                                "UnityEnvironment._generate_step_input": {
                                                                    "total": 0.0001918560010381043,
                                                                    "count": 1,
                                                                    "is_parallel": true,
                                                                    "self": 0.0001918560010381043
                                                                },
                                                                "communicator.exchange": {
                                                                    "total": 0.026148611010285094,
                                                                    "count": 1,
                                                                    "is_parallel": true,
                                                                    "self": 0.026148611010285094
                                                                },
                                                                "steps_from_proto": {
                                                                    "total": 0.0004524360119830817,
                                                                    "count": 1,
                                                                    "is_parallel": true,
                                                                    "self": 0.00021518199355341494,
                                                                    "children": {
                                                                        "_process_vector_observation": {
                                                                            "total": 0.00023725401842966676,
                                                                            "count": 6,
                                                                            "is_parallel": true,
                                                                            "self": 0.00023725401842966676
                                                                        }
                                                                    }
                                                                }
                                                            }
                                                        }
                                                    }
                                                },
                                                "UnityEnvironment.step": {
                                                    "total": 7340.097201130586,
                                                    "count": 1013370,
                                                    "is_parallel": true,
                                                    "self": 214.89080548961647,
                                                    "children": {
                                                        "UnityEnvironment._generate_step_input": {
                                                            "total": 150.34634880445083,
                                                            "count": 1013370,
                                                            "is_parallel": true,
                                                            "self": 150.34634880445083
                                                        },
                                                        "communicator.exchange": {
                                                            "total": 6065.7562149776495,
                                                            "count": 1013370,
                                                            "is_parallel": true,
                                                            "self": 6065.7562149776495
                                                        },
                                                        "steps_from_proto": {
                                                            "total": 909.103831858869,
                                                            "count": 1013370,
                                                            "is_parallel": true,
                                                            "self": 415.47316665793187,
                                                            "children": {
                                                                "_process_vector_observation": {
                                                                    "total": 493.6306652009371,
                                                                    "count": 6080220,
                                                                    "is_parallel": true,
                                                                    "self": 493.6306652009371
                                                                }
                                                            }
                                                        }
                                                    }
                                                }
                                            }
                                        }
                                    }
                                }
                            }
                        }
                    }
                },
                "TrainerController._save_model": {
                    "total": 5.248341066122521,
                    "count": 21,
                    "self": 5.248341066122521
                },
                "trainer_threads": {
                    "total": 5.0425995141267776e-05,
                    "count": 1,
                    "self": 5.0425995141267776e-05,
                    "children": {
                        "thread_root": {
                            "total": 0.0,
                            "count": 0,
                            "is_parallel": true,
                            "self": 0.0,
                            "children": {
                                "trainer_advance": {
                                    "total": 11153.800611882267,
                                    "count": 10627903,
                                    "is_parallel": true,
                                    "self": 352.17004007071955,
                                    "children": {
                                        "process_trajectory": {
                                            "total": 10425.913829395577,
                                            "count": 10627903,
                                            "is_parallel": true,
                                            "self": 10425.913829395577
                                        },
                                        "_update_policy": {
                                            "total": 375.71674241597066,
                                            "count": 19,
                                            "is_parallel": true,
                                            "self": 70.48376785989967,
                                            "children": {
                                                "PPOOptimizer.update": {
                                                    "total": 305.232974556071,
                                                    "count": 22257,
                                                    "is_parallel": true,
                                                    "self": 305.232974556071
                                                }
                                            }
                                        }
                                    }
                                }
                            }
                        }
                    }
                }
            }
        }
    }
}